{
    "KPackageStructure": "KWin/Effect",
    "KPlugin": {
        "Authors": [
            {
                "Email": "mgraesslin@kde.org, vlad.zahorodnii@kde.org",
                "Name": "Martin Flöser, Vlad Zahorodnii",
                "Name[ar]": "مارتن فلوسر، فلاد زاهورودني",
                "Name[be]": "Martin Flöser, Vlad Zahorodnii",
                "Name[bg]": "Martin Flöser, Vlad Zahorodnii",
                "Name[ca@valencia]": "Martin Flöser, Vlad Zahorodnii",
                "Name[ca]": "Martin Flöser, Vlad Zahorodnii",
                "Name[cs]": "Martin Flöser, Vlad Zahorodnii",
                "Name[de]": "Martin Flöser, Vlad Zahorodnii",
                "Name[en_GB]": "Martin Flöser, Vlad Zahorodnii",
                "Name[es]": "Martin Flöser, Vlad Zahorodnii",
                "Name[et]": "Martin Flöser, Vlad Zahorodnii",
                "Name[eu]": "Martin Flöser, Vlad Zahorodnii",
                "Name[fi]": "Martin Flöser, Vlad Zahorodnii",
                "Name[fr]": "Martin Flöser, Vlad Zahorodnii",
                "Name[ia]": "Martin Flöser, Vlad Zahorodnii",
                "Name[it]": "Martin Flöser, Vlad Zahorodnii",
                "Name[ja]": "Martin Flöser, Vlad Zahorodnii",
                "Name[ka]": "Vlad Zahorodnii",
                "Name[nl]": "Martin Flöser, Vlad Zahorodnii",
                "Name[nn]": "Martin Flöser, Vlad Zahorodnii",
                "Name[pl]": "Martin Flöser, Vlad Zahorodnii",
                "Name[pt]": "Martin Flöser, Vlad Zahorodnii",
                "Name[ru]": "Martin Flöser, Влад Загородний",
                "Name[sl]": "Martin Flöser, Vlad Zahorodnii",
                "Name[ta]": "மார்ட்டின் ஃபுலோசர், விலாட் ஜாஹொரிடுனி",
                "Name[tr]": "Martin Flöser, Vlad Zahorodnii",
                "Name[uk]": "Martin Flöser, Влад Завгородній",
                "Name[vi]": "Martin Flöser, Vlad Zahorodnii",
                "Name[x-test]": "xxMartin Flöser, Vlad Zahorodniixx",
                "Name[zh_CN]": "Martin Flöser, Vlad Zahorodnii",
                "Name[zh_TW]": "Martin Flöser, Vlad Zahorodnii"
            }
        ],
        "Category": "Focus",
        "Description": "Darkens the entire screen when requesting root privileges",
        "Description[ar]": "يعتم كامل الشاشة عند طلب صلاحيات الجذر",
        "Description[be]": "Зацямненне ўсяго экрана пры запытванні правоў суперкарыстальніка",
        "Description[bg]": "Екранът затъмнява при необходимост от администраторски права ",
        "Description[ca@valencia]": "Enfosquix tota la pantalla en demanar privilegis d'administrador",
        "Description[ca]": "Enfosqueix tota la pantalla en demanar privilegis d'administrador",
        "Description[cs]": "Ztmaví obrazovku, pokud jsou vyžadována oprávnění administrátora systému",
        "Description[de]": "Dunkelt den gesamten Bildschirm ab, wenn nach dem Systemverwalter-Passwort gefragt wird",
        "Description[en_GB]": "Darkens the entire screen when requesting root privileges",
        "Description[es]": "Oscurece toda la pantalla cuando se solicitan privilegios de «root»",
        "Description[et]": "Tumendab administraatori õiguste nõudmisel kogu ekraani",
        "Description[eu]": "«root»aren pribilegioak eskatzean pantaila osoa iluntzen du",
        "Description[fi]": "Tummentaa koko näytön pääkäyttäjäoikeuksia pyydettäessä",
        "Description[fr]": "Assombrir la totalité de l'écran quand les privilèges d'administrateur sont nécessaires",
        "Description[ia]": "Il obscura le schermo integre quando il demanda privilegios de super-usator (root)",
        "Description[it]": "Scurisce tutto lo schermo quando si richiedono i privilegi di root",
        "Description[ja]": "root 権限が要求されるとスクリーン全体を暗くします",
        "Description[nl]": "Maakt het volledige scherm donker wanneer er om root-privileges wordt verzocht",
        "Description[nn]": "Gjer heile skjermen mørkare når det vert spurt om rottilgang",
        "Description[pl]": "Przyciemnia ekran przy żądaniu praw administratora",
        "Description[pt]": "Escurece o ecrã todo ao pedir privilégios de administração",
        "Description[ru]": "Затемнение всего экрана при запросе привилегий суперпользователя",
        "Description[sl]": "Potemni celoten naslov ob zahtevi za korenske pravice",
        "Description[ta]": "ரூட் உரிமையை கோரும்போது திரை முழுவதையும் இருளாக்கும்",
        "Description[tr]": "Yönetici ayrıcalıkları isterken tüm ekranı karartır",
        "Description[uk]": "Притлумлює кольори усього екрана, коли працюємо з доступом root",
        "Description[vi]": "Làm tối toàn bộ màn hình khi yêu cầu đặc quyền gốc",
        "Description[x-test]": "xxDarkens the entire screen when requesting root privilegesxx",
        "Description[zh_CN]": "系统请求 root 权限时降低屏幕亮度",
        "Description[zh_TW]": "請求 root 權限時將整個螢幕變暗",
        "EnabledByDefault": false,
        "Icon": "preferences-system-windows-effect-dimscreen",
        "Id": "dimscreen",
        "License": "GPL",
        "Name": "Dim Screen for Administrator Mode",
        "Name[ar]": "يعتم الشاشة لنمط المدير",
        "Name[be]": "Зацямненне экрана для рэжыму адміністратара",
        "Name[bg]": "Затъмняване на екрана в администраторски режим",
        "Name[ca@valencia]": "Enfosquix la pantalla per al mode administrador",
        "Name[ca]": "Enfosqueix la pantalla per al mode administrador",
        "Name[cs]": "Ztmavit obrazovku v administrátorském režimu",
        "Name[de]": "Bildschirm für Systemverwaltungsmodus abdunkeln",
        "Name[en_GB]": "Dim Screen for Administrator Mode",
        "Name[es]": "Oscurecer la pantalla en el modo administrador",
        "Name[et]": "Tuhm ekraan administraatori režiimis",
        "Name[eu]": "Ahuldu pantaila administratzaile modurako",
        "Name[fi]": "Himmennä näyttö pääkäyttäjätilassa",
        "Name[fr]": "Régler l'écran en mode administrateur",
        "Name[ia]": "Schermo Dim pro modo de administrator",
        "Name[it]": "Oscuramento dello schermo in modalità amministrativa",
        "Name[ja]": "管理者モードでスクリーンを暗くする",
        "Name[ka]": "ეკრანის ჩაბნელება ადმინისტრატორის რეჟიმისთვის",
        "Name[nl]": "Scherm dimmen voor administratormodus",
        "Name[nn]": "Mørklegg skjermen i administratormodus",
        "Name[pl]": "Przyciemnienie ekranu dla trybu administratora",
        "Name[pt]": "Escurecer o Ecrã para o Modo de Administrador",
        "Name[ru]": "Затемнение экрана при административной задаче",
        "Name[sl]": "Potemni zaslon za skrbniški način",
        "Name[ta]": "ரூட் பயன்முறைக்கு திரையை இருளாக்கு",
        "Name[tr]": "Yönetici Kipi için Ekranı Karart",
        "Name[uk]": "Притлумлення кольорів у режимі адміністратора",
        "Name[vi]": "Làm tối màn hình cho chế độ quản trị viên",
        "Name[x-test]": "xxDim Screen for Administrator Modexx",
        "Name[zh_CN]": "请求管理员模式时降低屏幕亮度",
        "Name[zh_TW]": "為管理員模式暗化螢幕",
        "Version": "1",
        "Website": ""
    },
    "X-KDE-Ordering": "60",
    "X-KDE-ParentApp": "",
    "X-KWin-Video-Url": "https://files.kde.org/plasma/kwin/effect-videos/dim_administration.mp4",
    "X-Plasma-API": "javascript",
    "X-Plasma-MainScript": "code/main.js"
}
